…
Now, let’s load our data set and take a look at some summary statistics:

data_seatbelts = tk_tbl(Seatbelts)

data_seatbelts

## # A tibble: 192 x 9
##    index    DriversKilled drivers front  rear    kms PetrolPrice VanKilled
##    <S3: ye>         <dbl>   <dbl> <dbl> <dbl>  <dbl>       <dbl>     <dbl>
##  1 Jan 1969          107.   1687.  867.  269.  9059.       0.103       12.
##  2 Feb 1969           97.   1508.  825.  265.  7685.       0.102        6.
##  3 Mrz 1969          102.   1507.  806.  319.  9963.       0.102       12.
##  4 Apr 1969           87.   1385.  814.  407. 10955.       0.101        8.
##  5 Mai 1969          119.   1632.  991.  454. 11823.       0.101       10.
##  6 Jun 1969          106.   1511.  945.  427. 12391.       0.101       13.
##  7 Jul 1969          110.   1559. 1004.  522. 13460.       0.104       11.
##  8 Aug 1969          106.   1630. 1091.  536. 14055.       0.104        6.
##  9 Sep 1969          107.   1579.  958.  405. 12106.       0.104       10.
## 10 Okt 1969          134.   1653.  850.  437. 11372.       0.103       16.
## # ... with 182 more rows, and 1 more variable: law <dbl>
…
